uke04_prepros2.knit
…
Om du ikke får til for-løkken, bruk:

taler_df <- read.table("https://www.dropbox.com/s/2dkmn0z64z1b4rt/taler_df.txt?dl=1", 
                       fileEncoding = "UTF-8") %>%
  as_tibble()

OBS: kan ta litt tid + krever internett.

Det endelige datasettet

Hva er analyseenheten her?

taler_df

## # A tibble: 100 x 3
##    overskrift                                             metadata         tekst
##    <chr>                                                  <chr>            <chr>
##  1 Åtte krav for prostituerte                             "\r\n\t\t\t\tKa~ "Kil~
##  2 Gi oss sjansen til å gjøre de store og viktige jobbene "\r\n\t\t\t\tRa~ "Kil~
##  3 Enhver Krænkelse bør ophøre                            "\r\n\t\t\t\tPe~ "Kil~
##  4 Vi kan alle gjøre en forskjell                         "\r\n\t\t\t\tEr~ "Kil~
##  5 Skape og dele                                          "\r\n\t\t\t\tRo~ "Kil~
##  6 Ærefulde og sikrende Vilkaar                           "\r\n\t\t\t\tLo~ "Kil~
##  7 Riksrådsforhandlingene VI                              "\r\n\t\t\t\tJa~ "Kil~
##  8 Å bevare freden for vårt eget land                     "\r\n\t\t\t\tHa~ "Kil~
##  9 Vi har gjennomskuet Israels krigspropaganda            "\r\n\t\t\t\tOl~ "Kil~
## 10 Vi skaper verdier og fordeler rettferdig               "\r\n\t\t\t\tRo~ "Kil~
## # ... with 90 more rows
…
