uke_09_latent_posisjon.knit
…
mp_codebook()

## # A tibble: 143 x 8
##    type  domain_code domain_name        code  variable_name title  descr~1 label
##    <chr> <chr>       <chr>              <chr> <chr>         <chr>  <chr>   <chr>
##  1 main  0           NA                 000   peruncod      No ot~ "Share~ perc~
##  2 main  1           External Relations 101   per101        Forei~ "Favou~ fore~
##  3 main  1           External Relations 102   per102        Forei~ "Negat~ fore~
##  4 main  1           External Relations 103   per103        Anti-~ "Negat~ anti~
##  5 main  1           External Relations 104   per104        Milit~ "The i~ mili~
##  6 main  1           External Relations 105   per105        Milit~ "Negat~ mili~
##  7 main  1           External Relations 106   per106        Peace  "Any d~ peace
##  8 main  1           External Relations 107   per107        Inter~ "Need ~ inte~
##  9 main  1           External Relations 108   per108        Europ~ "Favou~ euro~
## 10 main  1           External Relations 109   per109        Inter~ "Negat~ inte~
## # ... with 133 more rows, and abbreviated variable name 1: description_md
…
