uke_07_ordbok_tekstlikhet_sentiment.knit
…
brexit %>%
  select(influencer, twitter_bio) %>%
  unique() %>%
  group_by(influencer) %>%
  unnest_tokens(input = twitter_bio,
                output = ord,
                token = "ngrams",
                n = 2) %>%
  mutate(brexitanti = ifelse(ord %in% ordbok$negativ, 1, 0),
         brexitpro = ifelse(ord %in% ordbok$positiv, 1, 0)) %>%
  group_by(influencer) %>% 
  summarize(brexit_anti = sum(brexitanti),
            brexit_pro = sum(brexitpro))

## # A tibble: 6,623 x 3
##    influencer       brexit_anti brexit_pro
##    <chr>                  <dbl>      <dbl>
##  1 @_____macky_____           1          0
##  2 @_____Macky_____           1          0
##  3 @___angelheart__           2          0
##  4 @___macky__                1          0
##  5 @_Andy_Denis_              0          0
##  6 @_deadmansurfing           0          0
##  7 @_dunnster                 0          0
##  8 @_glennteale               0          0
##  9 @_is0bel_                  2          0
## 10 @_jane_whittle             0          0
## # ... with 6,613 more rows
…
Ferdiglagd ordbok
(fra tidytext kapittel 2)

tidytext_ordbok <- get_sentiments("bing")

sentiment <- brexit %>%
  select(influencer, date, hit_sentence) %>%
  unnest_tokens(input = hit_sentence,
                output = ord) %>%
  inner_join(tidytext_ordbok, by = c("ord" = "word"))

sentiment

## # A tibble: 895,823 x 4
##    influencer       date       ord        sentiment
##    <chr>            <date>     <chr>      <chr>    
##  1 @DeniseMembery   2022-01-15 right      positive 
##  2 @DeniseMembery   2022-01-15 dangerous  negative 
##  3 @DeniseMembery   2022-01-15 hell       negative 
##  4 @DeniseMembery   2022-01-15 bent       negative 
##  5 @DeniseMembery   2022-01-15 precious   positive 
##  6 @DeniseMembery   2022-01-15 revenge    negative 
##  7 @DeniseMembery   2022-01-15 propaganda negative 
##  8 @007stirling     2022-01-15 rich       positive 
##  9 @007stirling     2022-01-15 oblivious  negative 
## 10 @ukleadstheworld 2022-01-15 win        positive 
## # ... with 895,813 more rows
…
nor_fullform_sent$positive %>% head()

## [1] "absolutt"    "absolutta"   "absolutte"   "absoluttene" "absolutter" 
## [6] "absoluttet"

nor_fullform_sent$negative %>% head()

## [1] "abnorm"   "abnorme"  "abnormt"  "abort"    "aborten"  "abortene"

Eksempel med treningsdata

Gitt at vi har ferdigmerket data…

## # A tibble: 1,000 x 3
##    influencer       text                                                 senti~1
##    <chr>            <chr>                                                <chr>  
##  1 @thomasevansadur "QT @fbpe_mark: Yes. Remainers come this daft. ; @T~ Neutral
##  2 @davidofhook     "RT @Sky48115666: Aren't we all sick of defending b~ Negati~
##  3 @william93666824 "RT @AndyTuohyDesign: @johnredwood Maybe they are h~ Negati~
##  4 @JaneWright17    "RT @gavinesler: If the UK wants to be regarded as ~ Neutral
##  5 @mats_247        "RT @QprEver: \U0001f1ec\U0001f1e7Tobias Ellwood \U~ Neutral
##  6 @nigelschofield6 "RT @andrew_lilico: QT @DmitryOpines: Unless we thi~ Neutral
##  7 @Smartie98914401 "RT @4114nJ: @Femi_Sorry Er...not quite. The people~ Neutral
##  8 @felicefan       "@Peston That reality is because we left the EU. No~ Negati~
##  9 @kazzaB33        "RT @DMinghella: Putin tells his people outrageous ~ Negati~
## 10 @Spg1990         "RT @tomhfh: Did the Prime Minister really say Ukra~ Neutral
## # ... with 990 more rows, and abbreviated variable name 1: sentiment
…
