uke01_intro.knit
…
Oppdagelse (discovery)

Måling (measurement)

Slutning (inference)

Deskriptiv

Deskriptiv analyse handler om å beskrive dataene.

For eksempel:

Hvilket ord dukker oftest opp på platen?

## # A tibble: 405 x 2
##    ord       n
##    <chr> <int>
##  1 alt      10
##  2 se        7
##  3 går       6
##  4 ser       6
##  5 får       5
##  6 gå        5
##  7 må        5
##  8 sted      5
##  9 tid       5
## 10 vet       5
## # ... with 395 more rows
…
